\relax 
\@writefile{toc}{\contentsline {section}{\numberline {1}Introduction}{1}}
\@writefile{toc}{\contentsline {section}{\numberline {2}Benchmark description}{1}}
\@writefile{toc}{\contentsline {section}{\numberline {3}Architectural parameters}{1}}
\@writefile{toc}{\contentsline {subsection}{\numberline {3.1}Analysis at the run time}{2}}
\newlabel{tab:instRatio}{{3.1}{2}}
\@writefile{lot}{\contentsline {table}{\numberline {1}{\ignorespaces Ratio of executed instruction groups.}}{2}}
\newlabel{tab:inspectedParams}{{3.1}{2}}
\@writefile{lot}{\contentsline {table}{\numberline {2}{\ignorespaces Inspected parameters.}}{2}}
\@writefile{toc}{\contentsline {section}{\numberline {4}Default configuration results}{3}}
\newlabel{tab:defaultConfig}{{4}{3}}
\@writefile{lot}{\contentsline {table}{\numberline {3}{\ignorespaces Configuration of the default architecture.}}{3}}
\newlabel{tab:defaultResults}{{4}{3}}
\@writefile{lot}{\contentsline {table}{\numberline {4}{\ignorespaces Performance and power of the default architecture.}}{3}}
\@writefile{toc}{\contentsline {section}{\numberline {5}Experiments}{3}}
\@writefile{toc}{\contentsline {subsection}{\numberline {5.1}ALU units}{3}}
\@writefile{toc}{\contentsline {subsection}{\numberline {5.2}In-order/Out-of-Order execution}{4}}
\@writefile{toc}{\contentsline {subsection}{\numberline {5.3}Caches}{4}}
\@writefile{toc}{\contentsline {subsection}{\numberline {5.4}Branch prediction}{4}}
\@writefile{toc}{\contentsline {section}{\numberline {6}Space exploration}{5}}
\newlabel{fig:paramspace}{{6}{5}}
\@writefile{lof}{\contentsline {figure}{\numberline {1}{\ignorespaces Architectures in the explored space + pareto curve}}{5}}
\newlabel{fig:cluster:1}{{6}{6}}
\@writefile{lof}{\contentsline {figure}{\numberline {2}{\ignorespaces Detail of the left cluster}}{6}}
\newlabel{fig:cluster:2}{{6}{6}}
\@writefile{lof}{\contentsline {figure}{\numberline {3}{\ignorespaces Detail of the right cluster}}{6}}
\@writefile{toc}{\contentsline {section}{\numberline {7}Conclusion}{7}}
